{
	"Configuration"                   :{
      "datasetType"                 :"model",
      "profileThreshold"            :3,
      "paths"                       :{
          "dataset"                 :"C:/workspaceLocal/lakeinsight_physicalcharacteristics/DATA/MODEL_GhanaBaseline/output_daily.nc",
          "plotsOut"                :"C:/workspaceLocal/lakeinsight_physicalcharacteristics/DATA/MODEL_GhanaBaseline/Plots2005",
          "datasetHYPS"             :"C:/workspaceLocal/lakeinsight_physicalcharacteristics/DATA/MODEL_GhanaBaseline/hypsograph.dat"
                                     },
      "period"                      :{
          "request"                 :"period",
          "start"                   :"2005-01-01 00:00:00",
          "stop"                    :"2005-01-02 00:00:00"
                                     }
                                     },
                                     
  "Preprocessing"                   :{
      "depthInterval"               :0.1,
      "badDepthThreshold"           :4.3,
      "badDepthThresholdTolerance"  :0.0,
      "tempThresholdLower"          :-1.0, 
      "depthThresholdLower"         :2000,
      "smoothingMethod"             :{
          "Temperature"             :["window",9],
          "Fluorescence"            :["window",9],
          "Other"                   :["spline",1]
                                     }
                                     },
	
	"Algorithm"                       :{
      "Peak"                        :{
          "peakMinInterval"         :10,
          "minPeakMagnitude"        :0.3,
          "peakHeight"              :0.2,
          "peakSize"                :2.5
                                     },
                                     
      "PLR"                         :{
          "maxTempertureChange"     :2.0,
          "max_error"               :0.1,
          "stable_gradient2"        :0.25,
          "stable_gradient"         :0.1,
          "minTRM_gradient"         :0.05
                                     }
                                     }
}